glm-js[0.0.3][module][three.js]
m3 mat4x4((2.000000, 0.000000, 0.000000, 0.000000), (0.000000, 2.000000, 0.000000, 0.000000), (0.000000, 0.000000, 2.000000, 0.000000), (0.000000, 0.000000, 0.000000, 2.000000))
mrot <quat>fvec3(0.000000, 44.999996, 0.000000)
m3 mat4x4((1.414214, 0.000000, -1.414214, 0.000000), (0.000000, 2.000000, 0.000000, 0.000000), (1.414214, 0.000000, 1.414214, 0.000000), (0.000000, 0.000000, 0.000000, 2.000000))
